{
  "images" : [
    {
      "filename" : "leftArrow.svg",
      "idiom" : "universal",
      "language-direction" : "left-to-right",
      "scale" : "1x"
    },
    {
      "idiom" : "universal",
      "language-direction" : "left-to-right",
      "scale" : "2x"
    },
    {
      "idiom" : "universal",
      "language-direction" : "left-to-right",
      "scale" : "3x"
    }
  ],
  "info" : {
    "author" : "xcode",
    "version" : 1
  },
  "properties" : {
    "preserves-vector-representation" : true,
    "template-rendering-intent" : "original"
  }
}
